route_id,agency_id,route_short_name,route_long_name,route_desc,route_type,route_url,route_color,route_text_color
B21,100,B21,"Railway Station - Stadium","Railway Station - Stadium",3,,000000,000000
B22,100,B22,"Railway Station - Shopping Zone","Railway Station - Shopping Zone",3,,000000,000000
N1,100,N2,"Stadium - City Hall","Stadium - City Hall",3,,000000,000000
N2,100,N2,"Harbor - Railway Station","Harbor - Railway Station",3,,000000,000000

